%YAML 1.1
%TAG !u! tag:unity3d.com,2011:
--- !u!1 &6870569888722876150
GameObject:
  m_ObjectHideFlags: 0
  m_CorrespondingSourceObject: {fileID: 0}
  m_PrefabInstance: {fileID: 0}
  m_PrefabAsset: {fileID: 0}
  serializedVersion: 6
  m_Component:
  - component: {fileID: 6870569888722876145}
  - component: {fileID: 6870569888722876144}
  - component: {fileID: 3970259233341921850}
  m_Layer: 9
  m_Name: InteractableCup
  m_TagString: Untagged
  m_Icon: {fileID: 0}
  m_NavMeshLayer: 0
  m_StaticEditorFlags: 0
  m_IsActive: 1
--- !u!4 &6870569888722876145
Transform:
  m_ObjectHideFlags: 0
  m_CorrespondingSourceObject: {fileID: 0}
  m_PrefabInstance: {fileID: 0}
  m_PrefabAsset: {fileID: 0}
  m_GameObject: {fileID: 6870569888722876150}
  m_LocalRotation: {x: 0, y: 0, z: 0, w: 1}
  m_LocalPosition: {x: 0, y: 0, z: 0}
  m_LocalScale: {x: 0.4, y: 0.4, z: 0.4}
  m_Children:
  - {fileID: 7657071147068999908}
  m_Father: {fileID: 0}
  m_RootOrder: 0
  m_LocalEulerAnglesHint: {x: 0, y: 0, z: 0}
--- !u!65 &6870569888722876144
BoxCollider:
  m_ObjectHideFlags: 0
  m_CorrespondingSourceObject: {fileID: 0}
  m_PrefabInstance: {fileID: 0}
  m_PrefabAsset: {fileID: 0}
  m_GameObject: {fileID: 6870569888722876150}
  m_Material: {fileID: 0}
  m_IsTrigger: 0
  m_Enabled: 1
  serializedVersion: 2
  m_Size: {x: 1, y: 1, z: 1}
  m_Center: {x: 0, y: 0, z: 0}
--- !u!114 &3970259233341921850
MonoBehaviour:
  m_ObjectHideFlags: 0
  m_CorrespondingSourceObject: {fileID: 0}
  m_PrefabInstance: {fileID: 0}
  m_PrefabAsset: {fileID: 0}
  m_GameObject: {fileID: 6870569888722876150}
  m_Enabled: 1
  m_EditorHideFlags: 0
  m_Script: {fileID: 11500000, guid: 6d934da337a4b444cacfd70226ce5630, type: 3}
  m_Name: 
  m_EditorClassIdentifier: 
  holdDuration: 0
  holdInteract: 0
  isInteractable: 1
  tooltipHoverText: "\u0412\u0437\u044F\u0442\u044C"
  tooltipHoldText: "\u0412\u0437\u0430\u0438\u043C\u043E\u0434\u0435\u0439\u0441\u0442\u0432\u0443\u044E"
  tooltipNotInteractableText: "\u041D\u0435 \u043C\u043E\u0433\u0443 \u0432\u0437\u0430\u0438\u043C\u043E\u0434\u0435\u0439\u0441\u0442\u0432\u043E\u0432\u0430\u0442\u044C"
  interactionTeleportableObject: {fileID: 0}
--- !u!1001 &7911092671975632655
PrefabInstance:
  m_ObjectHideFlags: 0
  serializedVersion: 2
  m_Modification:
    m_TransformParent: {fileID: 6870569888722876145}
    m_Modifications:
    - target: {fileID: -8679921383154817045, guid: cecd2c0d9ffe76c4ab5700bc8fd94fb3,
        type: 3}
      propertyPath: m_LocalPosition.x
      value: 0.032
      objectReference: {fileID: 0}
    - target: {fileID: -8679921383154817045, guid: cecd2c0d9ffe76c4ab5700bc8fd94fb3,
        type: 3}
      propertyPath: m_LocalPosition.y
      value: -0.26
      objectReference: {fileID: 0}
    - target: {fileID: -8679921383154817045, guid: cecd2c0d9ffe76c4ab5700bc8fd94fb3,
        type: 3}
      propertyPath: m_LocalPosition.z
      value: 0.062
      objectReference: {fileID: 0}
    - target: {fileID: -8679921383154817045, guid: cecd2c0d9ffe76c4ab5700bc8fd94fb3,
        type: 3}
      propertyPath: m_LocalRotation.x
      value: 0
      objectReference: {fileID: 0}
    - target: {fileID: -8679921383154817045, guid: cecd2c0d9ffe76c4ab5700bc8fd94fb3,
        type: 3}
      propertyPath: m_LocalRotation.y
      value: -0
      objectReference: {fileID: 0}
    - target: {fileID: -8679921383154817045, guid: cecd2c0d9ffe76c4ab5700bc8fd94fb3,
        type: 3}
      propertyPath: m_LocalRotation.z
      value: -0
      objectReference: {fileID: 0}
    - target: {fileID: -8679921383154817045, guid: cecd2c0d9ffe76c4ab5700bc8fd94fb3,
        type: 3}
      propertyPath: m_LocalRotation.w
      value: 1
      objectReference: {fileID: 0}
    - target: {fileID: -8679921383154817045, guid: cecd2c0d9ffe76c4ab5700bc8fd94fb3,
        type: 3}
      propertyPath: m_RootOrder
      value: 0
      objectReference: {fileID: 0}
    - target: {fileID: -8679921383154817045, guid: cecd2c0d9ffe76c4ab5700bc8fd94fb3,
        type: 3}
      propertyPath: m_LocalEulerAnglesHint.x
      value: 0
      objectReference: {fileID: 0}
    - target: {fileID: -8679921383154817045, guid: cecd2c0d9ffe76c4ab5700bc8fd94fb3,
        type: 3}
      propertyPath: m_LocalEulerAnglesHint.y
      value: 0
      objectReference: {fileID: 0}
    - target: {fileID: -8679921383154817045, guid: cecd2c0d9ffe76c4ab5700bc8fd94fb3,
        type: 3}
      propertyPath: m_LocalEulerAnglesHint.z
      value: 0
      objectReference: {fileID: 0}
    - target: {fileID: -8679921383154817045, guid: cecd2c0d9ffe76c4ab5700bc8fd94fb3,
        type: 3}
      propertyPath: m_LocalScale.x
      value: 6.5972776
      objectReference: {fileID: 0}
    - target: {fileID: -8679921383154817045, guid: cecd2c0d9ffe76c4ab5700bc8fd94fb3,
        type: 3}
      propertyPath: m_LocalScale.y
      value: 6.5972776
      objectReference: {fileID: 0}
    - target: {fileID: -8679921383154817045, guid: cecd2c0d9ffe76c4ab5700bc8fd94fb3,
        type: 3}
      propertyPath: m_LocalScale.z
      value: 6.5972776
      objectReference: {fileID: 0}
    - target: {fileID: 919132149155446097, guid: cecd2c0d9ffe76c4ab5700bc8fd94fb3,
        type: 3}
      propertyPath: m_Name
      value: cap
      objectReference: {fileID: 0}
    m_RemovedComponents: []
  m_SourcePrefab: {fileID: 100100000, guid: cecd2c0d9ffe76c4ab5700bc8fd94fb3, type: 3}
--- !u!4 &7657071147068999908 stripped
Transform:
  m_CorrespondingSourceObject: {fileID: -8679921383154817045, guid: cecd2c0d9ffe76c4ab5700bc8fd94fb3,
    type: 3}
  m_PrefabInstance: {fileID: 7911092671975632655}
  m_PrefabAsset: {fileID: 0}
